Ion &,Weight_Weight &,Delta_G_Transfer,\\ \hline 
Li &,$[0 10 30 50]$ &,$-1.*[0 2.53 8.2 9.6]$,\\ \hline 
Na &,$[0 10 30 50]$ &,$-1.*[0 2.29 7.2 8]$,\\ \hline 
K &,$[0 10 30 50]$ &,$-1.*[0 2.3 7.5 8.2]$,\\ \hline 
Rb &,$[0 10 30 50]$ &,$-1.*[0 2.64 7.8 8.3]$,\\ \hline 
Cs &,$[0 10 30 50]$ &,$-1.*[0 2.46 7.6 8.5]$,\\ \hline 
Cl &,$[0 8.68 8.68 17.81 17.81 46.52 46.52]$ &,$[0 3.47 3.46 7.1 7.1 14.7 14.7]$,\\ \hline 
Br &,$[0 10 30 50]$ &,$[0 3.12 9.8 12.6]$,\\ \hline 
I &,$[0 10 30 50]$ &,$[0 2.26 7.5 8.5]$,\\ \hline 
